{
  "internal_themes": [
    {
      "themeCode": "blue",
      "themeName": "静谧蓝",
      "themeNameLangKey": "kThemeNameBlue",
      "themeStatusBarWhite": true,
      "colors": {
        "appBackColor": "131f30",
        "contentBackColor": "333333",
        "bottomLineColor": "1a273a",
        "buyColor": "03c087",
        "sellColor": "e76d42",
        "zeroColor": "8c9fad",
        "callOrderColor": "ffff00",
        "textColorPercent": "ffffff",
        "textColorHighlight": "5786d2",
        "textColorGray": "3d526b",
        "textColorNormal": "6d87a8",
        "textColorMain": "ffffff",
        "ma5Color": "f6dc93",
        "ma10Color": "61d1c0",
        "ma30Color": "cb92fe",
        "navigationBarBackColor": "131f30",
        "navigationBarTextColor": "ffffff",
        "tabBarColor": "172941",
        "blockButtonBackColor": "607D8B",
        "blockButtonTextColor": "ffffff",
        "mainButtonBackColor": "e76d42",
        "mainButtonTextColor": "ffffff",
        "frameButtonBorderColor": "607D8B",
        "frameButtonTextColor": "607D8B",
        "tintColor": "e76d42",
        "iconColor": "fe6c5a",
        "textColor01": "212121",
        "textColor02": "727272",
        "noticeColor": "fe6c5a",
        "ticketColor": "8d9caa"
      }
    },
    {
      "themeCode": "white",
      "themeName": "珍珠白",
      "themeNameLangKey": "kThemeNameWhite",
      "themeStatusBarWhite": false,
      "colors": {
        "appBackColor": "ffffff",
        "contentBackColor": "333333",
        "bottomLineColor": "e7ebee",
        "buyColor": "03c087",
        "sellColor": "e76d42",
        "zeroColor": "8c9fad",
        "callOrderColor": "ffff00",
        "textColorPercent": "ffffff",
        "textColorHighlight": "5786d2",
        "textColorGray": "c5cfd5",
        "textColorNormal": "8c9fad",
        "textColorMain": "1f3f59",
        "ma5Color": "f6dc93",
        "ma10Color": "61d1c0",
        "ma30Color": "cb92fe",
        "navigationBarBackColor": "ffffff",
        "navigationBarTextColor": "1f3f59",
        "tabBarColor": "f2f2f2",
        "blockButtonBackColor": "607D8B",
        "blockButtonTextColor": "ffffff",
        "mainButtonBackColor": "fe6c5a",
        "mainButtonTextColor": "ffffff",
        "frameButtonBorderColor": "607D8B",
        "frameButtonTextColor": "607D8B",
        "tintColor": "fe6c5a",
        "iconColor": "fe6c5a",
        "textColor01": "212121",
        "textColor02": "727272",
        "noticeColor": "fe6c5a",
        "ticketColor": "8d9caa"
      }
    }
  ],
  "estimate_unit": [
    {
      "namekey": "kSettingCurrencyNameCNY",
      "symbol": "CNY"
    },
    {
      "namekey": "kSettingCurrencyNameUSD",
      "symbol": "USD"
    },
    {
      "namekey": "kSettingCurrencyNameEUR",
      "symbol": "EUR"
    },
    {
      "namekey": "kSettingCurrencyNameJPY",
      "symbol": "JPY"
    },
    {
      "namekey": "kSettingCurrencyNameKRW",
      "symbol": "KRW"
    },
    {
      "namekey": "kSettingCurrencyNameDXP",
      "symbol": "DXP"
    }
  ],
  "network_infos": {
    "max_parallel_num": 5,
    "max_retry_num": 3,
    "connect_timeout": 5,
    "ws_node_list": [
      {
        "url": "wss://node.dxperts.asia",
        "location": "Singapore",
        "namekey": "kSettingApiInternalNodeDXPSG",
        "enable": true,
        "username": "",
        "password": ""
      }
    ]
  },
  "parameters": {
    "default_kline_index": {
      "kMain": "ma",
      "kSub": "",
      "ma_value": [
        5,
        10,
        30
      ],
      "ema_value": [
        9,
        15,
        30
      ],
      "boll_value": {
        "n": 20,
        "p": 2
      },
      "macd_value": {
        "s": 12,
        "l": 26,
        "m": 9
      }
    },
    "kline_period_ary": [
      1,
      30,
      50,
      60,
      70
    ],
    "kline_query_callorder_number": 50,
    "kline_query_limitorder_number": 100,
    "kline_query_fillorder_number": 20,
    "trade_query_callorder_number": 50,
    "trade_query_limitorder_number": 20,
    "trade_query_fillorder_number": 20,
    "kline_period_default": 2,
    "display_precision": 5,
    "display_min_fraction": 2,
    "num_price_total_max_precision": 10,
    "max_custom_pair_num": 20,
    "order_book_num_kline": 20,
    "order_book_num_trade": 5,
    "wallet_import_account_max_num": 20,
    "collateral_ratio_default": 3.0,
    "mcr_default": 1.75,
    "max_ratio": 6.0,
    "max_target_ratio": 4.0,
    "base_budget_id": "2.13.25084",
    "base_budget_time": "2018-08-24T03:00:00",
    "voting_proxy_to_self": "1.2.5",
    "voting_proxy_max_level": 3
  },
  "faucet": {
    "url": "https://f.weaccount.cn/v1/chain/"
  },
  "main_smart_asset_list": [
    "CNY",
    "USD",
    "EUR",
    "JPY",
    "BTC",
    "KRW"
  ],
  "fee_assets_list": [
    "DXP",
    "CNY",
    "USD"
  ],
  "internal_groups": {
    "MAIN": {
      "id": 10,
      "key": "MAIN",
      "name": "主区",
      "name_key": "kLabelGroupNameMain",
      "main": true,
      "intro": false
    },
    "COMMUNITY": {
      "id": 90,
      "key": "MAIN",
      "name": "社区",
      "name_key": "kLabelGroupNameCommunity",
      "intro": false
    },
    "GDEX": {
      "id": 20,
      "key": "GDEX",
      "issuer": [
        "1.2.442525"
      ],
      "name": "GDEX(网关)",
      "name_key": "kLabelGroupNameGDEX",
      "gateway": true,
      "prefix": "GDEX",
      "intro": true
    },
    "WWW": {
      "id": 30,
      "key": "WWW",
      "issuer": [
        "1.2.471972"
      ],
      "name": "WWW(网关)",
      "name_key": "kLabelGroupNameWWW",
      "gateway": true,
      "prefix": "WWW"
    },
    "OPEN": {
      "id": 40,
      "key": "OPEN",
      "issuer": [
        "1.2.96397",
        "1.2.100614"
      ],
      "name": "OPEN(网关)",
      "name_key": "kLabelGroupNameOPEN",
      "gateway": true,
      "prefix": "OPEN"
    },
    "WIN": {
      "id": 50,
      "key": "WIN",
      "issuer": [
        "1.2.452990"
      ],
      "name": "WIN(网关)",
      "name_key": "kLabelGroupNameWIN",
      "gateway": true,
      "prefix": "WIN"
    },
    "__OTHER": {
      "id": 100,
      "key": "__OTHER",
      "name": "其他",
      "name_key": "kLabelGroupNameOther",
      "other": true,
      "intro": false
    }
  },
  "markets": [
    {
      "base": {
        "symbol": "CNY",
        "name": "BitCNY"
      },
      "group_list": [
        {
          "group_key": "MAIN",
          "quote_list": [
            "DXP",
            "USD"
          ]
        }
      ]
    },
    {
      "base": {
        "symbol": "USD",
        "name": "BitUSD"
      },
      "group_list": [
        {
          "group_key": "MAIN",
          "quote_list": [
            "DXP",
            "CNY"
          ]
        }
      ]
    },
    {
      "base": {
        "symbol": "DXP",
        "name": "DXP"
      },
      "group_list": [
        {
          "group_key": "MAIN",
          "quote_list": [
            "CNY",
            "USD"
          ]
        }
      ]
    }
  ]
}